{
  "ready": [
    {
      "message": "Here we go"
    }
  ],
  "concepts": {
    "{\n  \"_embedded\" : {\n    \"concepts\" : [\n      {\n        \"id\" : \"fe70dfdf-a4bf-402c-bf79-b8e1f16d107b\",\n        \"uri\" : \"https://fellesdatakatalog.brreg.no/api/concepts/fe70dfdf-a4bf-402c-bf79-b8e1f16d107b\",\n        \"identifier\" : \"https://registrering-begrep-api.fellesdatakatalog.brreg.no/961181399/c12f144e-e9d4-4581-9351-5af37abd8a68\",\n        \"application\" : [ ],\n        \"definition\" : {\n          \"text\" : {\n            \"nn\" : \"ei logisk avgrensa informasjonsmengd som er lagra på eit medium for seinare lesing, lyding, framsyning eller overføring\"\n          },\n          \"source\" : {\n            \"prefLabel\" : {\n              \"nb\" : \"lov 4. desember 1992 nr. 126 om arkiv\"\n            }\n          },\n          \"sourceRelationship\" : \"sitatFraKilde\",\n          \"sources\" : [ {\n            \"text\" : {\n              \"nb\" : \"lov 4. desember 1992 nr. 126 om arkiv\"\n            },\n            \"uri\" : \"https://lovdata.no/lov/1992-12-04-126/§2\"\n          } ]\n        },\n        \"prefLabel\" : {\n          \"nn\" : \"dokument\"\n        },\n        \"altLabel\" : [ ],\n        \"hiddenLabel\" : [ ],\n        \"contactPoint\" : {\n          \"email\" : \"begrep@arkivverket.no\"\n        },\n        \"seeAlso\" : [ ],\n        \"publisher\" : {\n          \"uri\" : \"http://data.brreg.no/enhetsregisteret/enhet/961181399\",\n          \"name\" : \"ARKIVVERKET\",\n          \"orgPath\" : \"/STAT/972417866/961181399\",\n          \"prefLabel\" : {\n            \"no\" : \"Arkivverket\"\n          }\n        },\n        \"harvest\" : {\n          \"firstHarvested\" : \"2020-02-18T07:57:00.170 0000\",\n          \"lastHarvested\" : \"2020-02-18T07:57:00.170 0000\"\n        }\n      },\n      {\n        \"id\" : \"9df9a117-dffa-4b69-afe2-b67eb97f2707\",\n        \"uri\" : \"https://fellesdatakatalog.brreg.no/api/concepts/9df9a117-dffa-4b69-afe2-b67eb97f2707\",\n        \"identifier\" : \"http://data.brreg.no/begrep/49220\",\n        \"application\" : [ ],\n        \"definition\" : {\n          \"text\" : {\n            \"nn\" : \"\\\"[...] ei logisk avgrensa informasjonsmengd som er lagra på eit medium for seinare lesing, lytting, framsyning, overføring eller liknande\\\"\",\n            \"nb\" : \"logisk avgrenset informasjonsmengde som er lagret på et medium for senere lesing, lytting, framvisning, overføring eller lignende\"\n          },\n          \"remark\" : {\n            \"nb\" : \"Et dokument kan foreligge på papir, elektronisk medium, mikrofiche, mikrofilm eller et hvilket som helst annet medium som kan inneholde informasjon. Dokumenter kan inneholde tekst, tegninger, grafikk, fotografier, video, tale og så videre.\"\n          },\n          \"source\" : {\n            \"prefLabel\" : {\n              \"nb\" : \"Offentleglova. _Lov 19. mai 2006 nr. 16 om rett til innsyn i dokument i offentleg verksemd §4._ Tilgjengelig fra: https://lovdata.no/NL/lov/2006-05-19-16/\"\n            }\n          },\n          \"sources\" : [ {\n            \"text\" : {\n              \"nb\" : \"Offentleglova. _Lov 19. mai 2006 nr. 16 om rett til innsyn i dokument i offentleg verksemd §4._ Tilgjengelig fra: https://lovdata.no/NL/lov/2006-05-19-16/\"\n            }\n          } ]\n        },\n        \"subject\" : {\n          \"nb\" : \"Arkiv\"\n        },\n        \"prefLabel\" : {\n          \"nb\" : \"dokument\"\n        },\n        \"altLabel\" : [ ],\n        \"hiddenLabel\" : [ ],\n        \"contactPoint\" : {\n          \"email\" : \"informasjonsforvaltning@brreg.no\",\n          \"telephone\" : \" 4775007500\"\n        },\n        \"seeAlso\" : [ ],\n        \"publisher\" : {\n          \"uri\" : \"http://data.brreg.no/enhetsregisteret/enhet/974760673\",\n          \"name\" : \"REGISTERENHETEN I BRØNNØYSUND\",\n          \"orgPath\" : \"/STAT/912660680/974760673\",\n          \"prefLabel\" : {\n            \"no\" : \"Brønnøysundregistrene\"\n          }\n        },\n        \"harvest\" : {\n          \"firstHarvested\" : \"2020-02-18T07:56:53.216 0000\",\n          \"lastHarvested\" : \"2020-02-26T06:02:41.730 0000\"\n        }\n      },\n      {\n        \"id\" : \"d4616e4b-959c-434f-b496-14a482e20bf9\",\n        \"uri\" : \"https://fellesdatakatalog.brreg.no/api/concepts/d4616e4b-959c-434f-b496-14a482e20bf9\",\n        \"identifier\" : \"http://begrepskatalogen/begrep/49e69804-5955-11e6-86bf-12156fd09fb5\",\n        \"application\" : [ ],\n        \"definition\" : {\n          \"text\" : {\n            \"nb\" : \"logisk avgrenset informasjonsmengde som er lagret på et medium for senere lesing, lytting, framføring, overføring eller lignende\"\n          },\n          \"source\" : {\n            \"prefLabel\" : {\n              \"nb\" : \"Forvaltningsloven Kap.1 §2 (f)\"\n            }\n          },\n          \"sources\" : [ {\n            \"text\" : {\n              \"nb\" : \"Forvaltningsloven Kap.1 §2 (f)\"\n            }\n          } ]\n        },\n        \"subject\" : {\n          \"nb\" : \"Arkiv\"\n        },\n        \"prefLabel\" : {\n          \"nb\" : \"dokument\"\n        },\n        \"altLabel\" : [ {\n          \"nb\" : \"elektronisk dokument\"\n        } ],\n        \"hiddenLabel\" : [ ],\n        \"contactPoint\" : {\n          \"email\" : \"begrepskatalogen@skatteetaten.no\"\n        },\n        \"validFromIncluding\" : \"2016-08-03\",\n        \"seeAlso\" : [ ],\n        \"publisher\" : {\n          \"uri\" : \"http://data.brreg.no/enhetsregisteret/enhet/974761076\",\n          \"name\" : \"SKATTEETATEN\",\n          \"orgPath\" : \"/STAT/972417807/974761076\",\n          \"prefLabel\" : {\n            \"no\" : \"SKATTEETATEN\"\n          }\n        },\n        \"harvest\" : {\n          \"firstHarvested\" : \"2020-02-18T07:55:06.417 0000\",\n          \"lastHarvested\" : \"2020-02-26T06:00:27.181 0000\"\n        }\n      },\n      {\n        \"id\" : \"d4616e4b-959c-434f-b496-14a482e20bf9\",\n        \"uri\" : \"https://fellesdatakatalog.brreg.no/api/concepts/d4616e4b-959c-434f-b496-14a482e20bf9\",\n        \"identifier\" : \"http://begrepskatalogen/begrep/49e69804-5955-11e6-86bf-12156fd09fb5\",\n        \"application\" : [ ],\n        \"definition\" : {\n          \"text\" : {\n            \"nb\" : \"logisk avgrenset informasjonsmengde som er lagret på et medium for senere lesing, lytting, framføring, overføring eller lignende\"\n          },\n          \"source\" : {\n            \"prefLabel\" : {\n              \"nb\" : \"Forvaltningsloven Kap.1 §2 (f)\"\n            }\n          },\n          \"sources\" : [ {\n            \"text\" : {\n              \"nb\" : \"Forvaltningsloven Kap.1 §2 (f)\"\n            }\n          } ]\n        },\n        \"subject\" : {\n          \"nb\" : \"Arkiv\"\n        },\n        \"prefLabel\" : {\n          \"nb\" : \"dokument\"\n        },\n        \"altLabel\" : [ {\n          \"nb\" : \"elektronisk dokument\"\n        } ],\n        \"hiddenLabel\" : [ ],\n        \"contactPoint\" : {\n          \"email\" : \"begrepskatalogen@skatteetaten.no\"\n        },\n        \"validFromIncluding\" : \"2016-08-03\",\n        \"seeAlso\" : [ ],\n        \"publisher\" : {\n          \"uri\" : \"http://data.brreg.no/enhetsregisteret/enhet/974761076\",\n          \"name\" : \"SKATTEETATEN\",\n          \"orgPath\" : \"/STAT/972417807/974761076\",\n          \"prefLabel\" : {\n            \"no\" : \"SKATTEETATEN\"\n          }\n        },\n        \"harvest\" : {\n          \"firstHarvested\" : \"2020-02-18T07:55:06.417 0000\",\n          \"lastHarvested\" : \"2020-02-26T06:00:27.181 0000\"\n        }\n      },\n      {\n        \"id\" : \"d4616e4b-959c-434f-b496-14a482e20bf9\",\n        \"uri\" : \"https://fellesdatakatalog.brreg.no/api/concepts/d4616e4b-959c-434f-b496-14a482e20bf9\",\n        \"identifier\" : \"http://begrepskatalogen/begrep/49e69804-5955-11e6-86bf-12156fd09fb5\",\n        \"application\" : [ ],\n        \"definition\" : {\n          \"text\" : {\n            \"nb\" : \"logisk avgrenset informasjonsmengde som er lagret på et medium for senere lesing, lytting, framføring, overføring eller lignende\"\n          },\n          \"source\" : {\n            \"prefLabel\" : {\n              \"nb\" : \"Forvaltningsloven Kap.1 §2 (f)\"\n            }\n          },\n          \"sources\" : [ {\n            \"text\" : {\n              \"nb\" : \"Forvaltningsloven Kap.1 §2 (f)\"\n            }\n          } ]\n        },\n        \"subject\" : {\n          \"nb\" : \"Arkiv\"\n        },\n        \"prefLabel\" : {\n          \"nb\" : \"dokument\"\n        },\n        \"altLabel\" : [ {\n          \"nb\" : \"elektronisk dokument\"\n        } ],\n        \"hiddenLabel\" : [ ],\n        \"contactPoint\" : {\n          \"email\" : \"begrepskatalogen@skatteetaten.no\"\n        },\n        \"validFromIncluding\" : \"2016-08-03\",\n        \"seeAlso\" : [ ],\n        \"publisher\" : {\n          \"uri\" : \"http://data.brreg.no/enhetsregisteret/enhet/974761076\",\n          \"name\" : \"SKATTEETATEN\",\n          \"orgPath\" : \"/STAT/972417807/974761076\",\n          \"prefLabel\" : {\n            \"no\" : \"SKATTEETATEN\"\n          }\n        },\n        \"harvest\" : {\n          \"firstHarvested\" : \"2020-02-18T07:55:06.417 0000\",\n          \"lastHarvested\" : \"2020-02-26T06:00:27.181 0000\"\n        }\n      },\n\n      {\n        \"id\" : \"f62b1e5b-33c9-4077-9ecb-758aac4602f9\",\n        \"uri\" : \"https://fellesdatakatalog.brreg.no/api/concepts/f62b1e5b-33c9-4077-9ecb-758aac4602f9\",\n        \"identifier\" : \"https://registrering-begrep-api.staging.fellesdatakatalog.digdir.no/910258028/9f25b5ad-8aa7-4233-853b-7434e20aeaef\",\n        \"application\" : [ ],\n        \"definition\" : {\n          \"text\" : {\n            \"nn\" : \"eit skriftstykke, eit skriftleg utgreiing og inneheld informasjon. Eit dokument er meint for kommunikasjon eller lagring av data. \"\n          },\n          \"source\" : {\n            \"prefLabel\" : {\n              \"nb\" : \"Noe sted et sted\"\n            }\n          },\n          \"sourceRelationship\" : \"basertPåKilde\",\n          \"sources\" : [ {\n            \"text\" : {\n              \"nb\" : \"Noe sted et sted\"\n            },\n            \"uri\" : \"\"\n          } ]\n        },\n        \"prefLabel\" : {\n          \"nn\" : \"dokument\"\n        },\n        \"altLabel\" : [ ],\n        \"hiddenLabel\" : [ ],\n        \"seeAlso\" : [ ],\n        \"publisher\" : {\n          \"uri\" : \"http://data.brreg.no/enhetsregisteret/enhet/910258028\",\n          \"name\" : \"LILAND OG ERDAL REVISJON\",\n          \"orgPath\" : \"/ANNET/910258028\"\n        },\n        \"harvest\" : {\n          \"firstHarvested\" : \"2020-02-18T10:55:17.757 0000\",\n          \"lastHarvested\" : \"2020-02-26T06:02:49.704 0000\"\n        }\n      }, {\n        \"id\" : \"204e3f27-f7c7-43bd-b107-989f22615444\",\n        \"uri\" : \"https://fellesdatakatalog.brreg.no/api/concepts/204e3f27-f7c7-43bd-b107-989f22615444\",\n        \"identifier\" : \"https://registrering-begrep-api.fellesdatakatalog.brreg.no/961181399/b1af69aa-0c56-40ca-ba2d-37f1e920efbf\",\n        \"application\" : [ ],\n        \"definition\" : {\n          \"text\" : {\n            \"nb\" : \"dato som er påført selve dokumentet\"\n          },\n          \"source\" : {\n            \"prefLabel\" : {\n              \"nb\" : \"Noark 5-standarden\"\n            }\n          },\n          \"sourceRelationship\" : \"sitatFraKilde\",\n          \"sources\" : [ {\n            \"text\" : {\n              \"nb\" : \"Noark 5-standarden\"\n            },\n            \"uri\" : \"\"\n          } ]\n        },\n        \"prefLabel\" : {\n          \"nb\" : \"dokumentdato\"\n        },\n        \"altLabel\" : [ ],\n        \"hiddenLabel\" : [ ],\n        \"contactPoint\" : {\n          \"email\" : \"begrep@arkivverket.no\"\n        },\n        \"seeAlso\" : [ ],\n        \"publisher\" : {\n          \"uri\" : \"http://data.brreg.no/enhetsregisteret/enhet/961181399\",\n          \"name\" : \"ARKIVVERKET\",\n          \"orgPath\" : \"/STAT/972417866/961181399\",\n          \"prefLabel\" : {\n            \"no\" : \"Arkivverket\"\n          }\n        },\n        \"harvest\" : {\n          \"firstHarvested\" : \"2020-02-18T07:57:00.444 0000\",\n          \"lastHarvested\" : \"2020-02-18T07:57:00.444 0000\"\n        }\n      }, {\n        \"id\" : \"3ea68ae1-7449-4b0b-ae27-cc711b811dea\",\n        \"uri\" : \"https://fellesdatakatalog.brreg.no/api/concepts/3ea68ae1-7449-4b0b-ae27-cc711b811dea\",\n        \"identifier\" : \"http://begrepskatalogen/begrep/8ef7c434-0ef8-11e7-a910-005056821322\",\n        \"application\" : [ ],\n        \"definition\" : {\n          \"text\" : {\n            \"nb\" : \"trinn i behandlingsprosessen for dokumenter i et arkiv- og saksbehandlingssystem\"\n          },\n          \"sources\" : [ ]\n        },\n        \"subject\" : {\n          \"nb\" : \"Arkiv\"\n        },\n        \"prefLabel\" : {\n          \"nb\" : \"dokumentflyt\"\n        },\n        \"altLabel\" : [ ],\n        \"hiddenLabel\" : [ ],\n        \"contactPoint\" : {\n          \"email\" : \"begrepskatalogen@skatteetaten.no\"\n        },\n        \"validFromIncluding\" : \"2017-03-01\",\n        \"validToIncluding\" : \"2022-03-01\",\n        \"seeAlso\" : [ ],\n        \"publisher\" : {\n          \"uri\" : \"http://data.brreg.no/enhetsregisteret/enhet/974761076\",\n          \"name\" : \"SKATTEETATEN\",\n          \"orgPath\" : \"/STAT/972417807/974761076\",\n          \"prefLabel\" : {\n            \"no\" : \"SKATTEETATEN\"\n          }\n        },\n        \"harvest\" : {\n          \"firstHarvested\" : \"2020-02-18T07:54:53.233 0000\",\n          \"lastHarvested\" : \"2020-02-26T06:00:15.071 0000\"\n        }\n      }, {\n        \"id\" : \"3aff83e2-096b-4694-b0ae-0b1aa64eb2b6\",\n        \"uri\" : \"https://fellesdatakatalog.brreg.no/api/concepts/3aff83e2-096b-4694-b0ae-0b1aa64eb2b6\",\n        \"identifier\" : \"http://begrepskatalogen/begrep/20b52b15-9fe1-11e5-a9f8-e4115b280940\",\n        \"application\" : [ ],\n        \"definition\" : {\n          \"text\" : {\n            \"nb\" : \"dataene som lagres som innhold i en dokumentrevisjon\"\n          },\n          \"remark\" : {\n            \"nb\" : \"Fullverdige XML-dokumenter som lagres som CDATA(eller encoded tekststreng) innhold i dokumentrevisjon. Omtales også som faktisk innhold, data og payload.\"\n          },\n          \"sources\" : [ ]\n        },\n        \"subject\" : {\n          \"nb\" : \"Skatteinfo\"\n        },\n        \"prefLabel\" : {\n          \"nb\" : \"dokumentinnhold\"\n        },\n        \"altLabel\" : [ ],\n        \"hiddenLabel\" : [ ],\n        \"contactPoint\" : {\n          \"email\" : \"begrepskatalogen@skatteetaten.no\"\n        },\n        \"seeAlso\" : [ ],\n        \"publisher\" : {\n          \"uri\" : \"http://data.brreg.no/enhetsregisteret/enhet/974761076\",\n          \"name\" : \"SKATTEETATEN\",\n          \"orgPath\" : \"/STAT/972417807/974761076\",\n          \"prefLabel\" : {\n            \"no\" : \"SKATTEETATEN\"\n          }\n        },\n        \"harvest\" : {\n          \"firstHarvested\" : \"2020-02-18T07:54:57.868 0000\",\n          \"lastHarvested\" : \"2020-02-26T06:00:18.824 0000\"\n        }\n      }, {\n        \"id\" : \"1e53c687-4a4d-46c5-b32f-e743c90cf65c\",\n        \"uri\" : \"https://fellesdatakatalog.brreg.no/api/concepts/1e53c687-4a4d-46c5-b32f-e743c90cf65c\",\n        \"identifier\" : \"http://begrepskatalogen/begrep/20b52b18-9fe1-11e5-a9f8-e4115b280940\",\n        \"application\" : [ ],\n        \"definition\" : {\n          \"text\" : {\n            \"nb\" : \"tilstanden på dokumentrevisjonen og kan være \\\"opprettet\\\", eller \\\"slettet\\\"\"\n          },\n          \"remark\" : {\n            \"nb\" : \"En dokumentrevisjon med tilstand \\\"slettet\\\" er markert som ikke (lenger) gjeldende informasjon, og skal fjernes av evt. nedstrøms systemer som opprinnelig har lest inn denne informasjonen.\"\n          },\n          \"sources\" : [ ]\n        },\n        \"subject\" : {\n          \"nb\" : \"Skatteinfo\"\n        },\n        \"prefLabel\" : {\n          \"nb\" : \"dokumenttilstand\"\n        },\n        \"altLabel\" : [ ],\n        \"hiddenLabel\" : [ ],\n        \"contactPoint\" : {\n          \"email\" : \"begrepskatalogen@skatteetaten.no\"\n        },\n        \"seeAlso\" : [ ],\n        \"publisher\" : {\n          \"uri\" : \"http://data.brreg.no/enhetsregisteret/enhet/974761076\",\n          \"name\" : \"SKATTEETATEN\",\n          \"orgPath\" : \"/STAT/972417807/974761076\",\n          \"prefLabel\" : {\n            \"no\" : \"SKATTEETATEN\"\n          }\n        },\n        \"harvest\" : {\n          \"firstHarvested\" : \"2020-02-18T07:54:59.153 0000\",\n          \"lastHarvested\" : \"2020-02-26T06:00:20.163 0000\"\n        }\n      }, {\n        \"id\" : \"9e5d1fd1-edb1-4b84-b510-d2b4ae0f105b\",\n        \"uri\" : \"https://fellesdatakatalog.brreg.no/api/concepts/9e5d1fd1-edb1-4b84-b510-d2b4ae0f105b\",\n        \"identifier\" : \"http://begrepskatalogen/begrep/8ef7c435-0ef8-11e7-a910-005056821322\",\n        \"application\" : [ ],\n        \"definition\" : {\n          \"text\" : {\n            \"nb\" : \"inkluderer både det å registrere, lagre, gjenfinne og presentere dokumenter\"\n          },\n          \"sources\" : [ ]\n        },\n        \"subject\" : {\n          \"nb\" : \"Arkiv\"\n        },\n        \"prefLabel\" : {\n          \"nb\" : \"dokumenthåndtering\"\n        },\n        \"altLabel\" : [ ],\n        \"hiddenLabel\" : [ ],\n        \"contactPoint\" : {\n          \"email\" : \"begrepskatalogen@skatteetaten.no\"\n        },\n        \"validFromIncluding\" : \"2017-03-01\",\n        \"validToIncluding\" : \"2022-03-01\",\n        \"seeAlso\" : [ ],\n        \"publisher\" : {\n          \"uri\" : \"http://data.brreg.no/enhetsregisteret/enhet/974761076\",\n          \"name\" : \"SKATTEETATEN\",\n          \"orgPath\" : \"/STAT/972417807/974761076\",\n          \"prefLabel\" : {\n            \"no\" : \"SKATTEETATEN\"\n          }\n        },\n        \"harvest\" : {\n          \"firstHarvested\" : \"2020-02-18T07:55:05.091 0000\",\n          \"lastHarvested\" : \"2020-02-26T06:00:25.763 0000\"\n        }\n      }, {\n        \"id\" : \"b3e6013f-60e2-4071-9313-6c6d07284547\",\n        \"uri\" : \"https://fellesdatakatalog.brreg.no/api/concepts/b3e6013f-60e2-4071-9313-6c6d07284547\",\n        \"identifier\" : \"http://begrepskatalogen/begrep/20b52b17-9fe1-11e5-a9f8-e4115b280940\",\n        \"application\" : [ ],\n        \"definition\" : {\n          \"text\" : {\n            \"nb\" : \"XML-dokument som representerer gjeldende informasjon for et logisk skatteinfodokument på et gitt tidspunkt\"\n          },\n          \"remark\" : {\n            \"nb\" : \"Dette er den grunnleggende informasjonsenhet i Skatteinfo. En dokumentrevisjon representerer gjeldende informasjon for et logisk skatteinfodokument (dokumentnavn) på et gitt tidspunkt.\"\n          },\n          \"sources\" : [ ]\n        },\n        \"subject\" : {\n          \"nb\" : \"Skatteinfo\"\n        },\n        \"prefLabel\" : {\n          \"nb\" : \"dokumentrevisjon\"\n        },\n        \"altLabel\" : [ ],\n        \"hiddenLabel\" : [ ],\n        \"contactPoint\" : {\n          \"email\" : \"begrepskatalogen@skatteetaten.no\"\n        },\n        \"seeAlso\" : [ ],\n        \"publisher\" : {\n          \"uri\" : \"http://data.brreg.no/enhetsregisteret/enhet/974761076\",\n          \"name\" : \"SKATTEETATEN\",\n          \"orgPath\" : \"/STAT/972417807/974761076\",\n          \"prefLabel\" : {\n            \"no\" : \"SKATTEETATEN\"\n          }\n        },\n        \"harvest\" : {\n          \"firstHarvested\" : \"2020-02-18T07:55:07.528 0000\",\n          \"lastHarvested\" : \"2020-02-26T06:00:28.456 0000\"\n        }\n      } ]\n  },\n  \"page\" : {\n    \"size\" : 10,\n    \"totalElements\" : 151,\n    \"totalPages\" : 16,\n    \"number\" : 0\n  },\n  \"aggregations\" : {\n    \"orgPath\" : {\n      \"buckets\" : [ {\n        \"key\" : \"/STAT\",\n        \"count\" : 146\n      }, {\n        \"key\" : \"/STAT/972417807\",\n        \"count\" : 115\n      }, {\n        \"key\" : \"/STAT/972417807/974761076\",\n        \"count\" : 115\n      }, {\n        \"key\" : \"/STAT/912660680\",\n        \"count\" : 25\n      }, {\n        \"key\" : \"/STAT/912660680/974760673\",\n        \"count\" : 25\n      }, {\n        \"key\" : \"/STAT/972417866\",\n        \"count\" : 6\n      }, {\n        \"key\" : \"/STAT/972417866/961181399\",\n        \"count\" : 6\n      }, {\n        \"key\" : \"/ANNET\",\n        \"count\" : 5\n      }, {\n        \"key\" : \"/ANNET/910298062\",\n        \"count\" : 4\n      }, {\n        \"key\" : \"/ANNET/910258028\",\n        \"count\" : 1\n      } ]\n    }\n  }\n}": ""
  }
}